\relax 
\providecommand\zref@newlabel[2]{}
\providecommand\hyper@newdestlabel[2]{}
\@nameuse{bbl@beforestart}
\catcode `:\active 
\catcode `;\active 
\catcode `!\active 
\catcode `?\active 
\providecommand\HyperFirstAtBeginDocument{\AtBeginDocument}
\HyperFirstAtBeginDocument{\ifx\hyper@anchor\@undefined
\global\let\oldcontentsline\contentsline
\gdef\contentsline#1#2#3#4{\oldcontentsline{#1}{#2}{#3}}
\global\let\oldnewlabel\newlabel
\gdef\newlabel#1#2{\newlabelxx{#1}#2}
\gdef\newlabelxx#1#2#3#4#5#6{\oldnewlabel{#1}{{#2}{#3}}}
\AtEndDocument{\ifx\hyper@anchor\@undefined
\let\contentsline\oldcontentsline
\let\newlabel\oldnewlabel
\fi}
\fi}
\global\let\hyper@last\relax 
\gdef\HyperFirstAtBeginDocument#1{#1}
\providecommand\HyField@AuxAddToFields[1]{}
\providecommand\HyField@AuxAddToCoFields[2]{}
\@writefile{toc}{}
\babel@aux{french}{}
\babel@aux{french}{}
\@writefile{bcl}{\contentsline {bclogo}{~\textbf  {Introduction} }{1}{bclogocompteur.1}\protected@file@percent }
\pgfsyspdfmark {pgfid2}{2605235}{33427281}
\pgfsyspdfmark {pgfid1}{1864679}{33063557}
\@writefile{toc}{\contentsline {section}{\numberline {1}Représentation interne des entiers naturels}{1}{section.1}\protected@file@percent }
\@writefile{toc}{\contentsline {subsection}{\numberline {1.1}Représentation en base 10}{1}{subsection.1.1}\protected@file@percent }
\@writefile{bcl}{\contentsline {bclogo}{~\textbf  {Exemple} \textbf  {1} {\itshape } }{1}{bclogocompteur.2}\protected@file@percent }
\pgfsyspdfmark {pgfid4}{2552807}{17214155}
\pgfsyspdfmark {pgfid3}{1864679}{16902859}
\@writefile{bcl}{\contentsline {bclogo}{~\textbf  {Exercice} \textbf  {1} {\itshape } }{1}{bclogocompteur.3}\protected@file@percent }
\pgfsyspdfmark {pgfid6}{2552807}{3964927}
\pgfsyspdfmark {pgfid5}{1864679}{3276800}
\pgfsyspdfmark {pgfid8}{2552807}{12078078}
\pgfsyspdfmark {pgfid7}{1864679}{11848702}
\@writefile{bcl}{\contentsline {bclogo}{~\textbf  {Exercice} \textbf  {2} {\itshape } }{2}{bclogocompteur.4}\protected@file@percent }
\pgfsyspdfmark {pgfid10}{2552807}{3964928}
\pgfsyspdfmark {pgfid9}{1864679}{3276800}
\pgfsyspdfmark {pgfid12}{2552807}{6354826}
\pgfsyspdfmark {pgfid11}{1864679}{6125450}
\@writefile{toc}{\contentsline {subsection}{\numberline {1.2}Représentation en base 2}{3}{subsection.1.2}\protected@file@percent }
\@writefile{bcl}{\contentsline {bclogo}{~\textbf  {Théorème-Définition} \textbf  {1} {\itshape } }{4}{bclogocompteur.5}\protected@file@percent }
\pgfsyspdfmark {pgfid13}{1864679}{38522909}
\@writefile{bcl}{\contentsline {bclogo}{~\textbf  {Exercice} \textbf  {3} {\itshape } }{4}{bclogocompteur.6}\protected@file@percent }
\pgfsyspdfmark {pgfid15}{2552807}{3964928}
\pgfsyspdfmark {pgfid14}{1864679}{3276800}
\pgfsyspdfmark {pgfid17}{2552807}{45829118}
\pgfsyspdfmark {pgfid16}{1864679}{45599742}
\@writefile{bcl}{\contentsline {bclogo}{~\textbf  {Exercice} \textbf  {4} {\itshape } }{5}{bclogocompteur.7}\protected@file@percent }
\pgfsyspdfmark {pgfid19}{2552807}{3964928}
\pgfsyspdfmark {pgfid18}{1864679}{3276800}
\pgfsyspdfmark {pgfid21}{2552807}{38983894}
\pgfsyspdfmark {pgfid20}{1864679}{38754518}
\@writefile{bcl}{\contentsline {bclogo}{~\textbf  {Exercice} \textbf  {5} {\itshape } }{6}{bclogocompteur.8}\protected@file@percent }
\pgfsyspdfmark {pgfid23}{2552807}{5962691}
\pgfsyspdfmark {pgfid22}{1864679}{5667779}
\@writefile{bcl}{\contentsline {bclogo}{~\textbf  {Méthode} {\itshape } }{7}{bclogocompteur.9}\protected@file@percent }
\pgfsyspdfmark {pgfid25}{2552807}{34666193}
\pgfsyspdfmark {pgfid24}{1864679}{34354897}
\@writefile{toc}{\contentsline {subsection}{\numberline {1.3}Représentation en base 16}{7}{subsection.1.3}\protected@file@percent }
\@writefile{bcl}{\contentsline {bclogo}{~\textbf  {Théorème-Définition} \textbf  {2} {\itshape } }{7}{bclogocompteur.10}\protected@file@percent }
\pgfsyspdfmark {pgfid26}{1864679}{20211300}
\@writefile{bcl}{\contentsline {bclogo}{~\textbf  {Exercice} \textbf  {6} {\itshape } }{7}{bclogocompteur.11}\protected@file@percent }
\pgfsyspdfmark {pgfid28}{2552807}{3964928}
\pgfsyspdfmark {pgfid27}{1864679}{3276800}
\pgfsyspdfmark {pgfid30}{2552807}{45015584}
\pgfsyspdfmark {pgfid29}{1864679}{44786209}
\@writefile{bcl}{\contentsline {bclogo}{~\textbf  {Méthode} {\itshape } }{8}{bclogocompteur.12}\protected@file@percent }
\pgfsyspdfmark {pgfid32}{2552807}{33417888}
\pgfsyspdfmark {pgfid31}{1864679}{33106592}
\@writefile{toc}{\contentsline {section}{\numberline {2}Représentation interne des entiers relatifs}{8}{section.2}\protected@file@percent }
\@writefile{toc}{\contentsline {subsection}{\numberline {2.1}Par signe et valeur absolue}{8}{subsection.2.1}\protected@file@percent }
\@writefile{bcl}{\contentsline {bclogo}{~\textbf  {Méthode} {\itshape Signe et valeur absolue} }{8}{bclogocompteur.13}\protected@file@percent }
\pgfsyspdfmark {pgfid34}{2552807}{18339108}
\pgfsyspdfmark {pgfid33}{1864679}{18027812}
\@writefile{bcl}{\contentsline {bclogo}{~\textbf  {Exercice} \textbf  {7} {\itshape } }{8}{bclogocompteur.14}\protected@file@percent }
\pgfsyspdfmark {pgfid36}{2552807}{3964928}
\pgfsyspdfmark {pgfid35}{1864679}{3276800}
\pgfsyspdfmark {pgfid38}{2552807}{44403710}
\pgfsyspdfmark {pgfid37}{1864679}{44174334}
\@writefile{toc}{\contentsline {subsection}{\numberline {2.2}Par complément à $2$}{9}{subsection.2.2}\protected@file@percent }
\@writefile{bcl}{\contentsline {bclogo}{~\textbf  {Méthode} {\itshape Complément à $2$} }{9}{bclogocompteur.15}\protected@file@percent }
\pgfsyspdfmark {pgfid41}{2552807}{15333695}
\pgfsyspdfmark {pgfid40}{1864679}{14629183}
\pgfsyspdfmark {pgfid43}{2552807}{35451096}
\pgfsyspdfmark {pgfid42}{1864679}{35205336}
\@writefile{bcl}{\contentsline {bclogo}{~\textbf  {Exercice} \textbf  {8} {\itshape } }{10}{bclogocompteur.16}\protected@file@percent }
\pgfsyspdfmark {pgfid45}{2552807}{3964928}
\pgfsyspdfmark {pgfid44}{1864679}{3276800}
\pgfsyspdfmark {pgfid47}{2552807}{4449247}
\pgfsyspdfmark {pgfid46}{1864679}{3761119}
\pgfsyspdfmark {pgfid49}{2552807}{14493116}
\pgfsyspdfmark {pgfid48}{1864679}{14263741}
\newlabel{LastPage}{{}{12}{}{page.12}{}}
\xdef\lastpage@lastpage{12}
\xdef\lastpage@lastpageHy{12}
