# Fdb version 3
["pdflatex"] 1637166604 "Chapitre6-ReprésentationEntiers-2021V1.tex" "Chapitre6-ReprésentationEntiers-2021V1.pdf" "Chapitre6-ReprésentationEntiers-2021V1" 1637166604
  "/etc/texmf/web2c/texmf.cnf" 1594383166 475 c0e671620eb5563b2130f56340a5fde8 ""
  "/home/fjunier/Maths/logo-parc.png" 1417876574 11043 476f14436507ed2c1ff3ec81f5d2bdd3 ""
  "/usr/share/texlive/texmf-dist/fonts/enc/dvips/base/8r.enc" 1165713224 4850 80dc9bab7f31fb78a000ccfed0e27cab ""
  "/usr/share/texlive/texmf-dist/fonts/map/fontname/texfonts.map" 1577235249 3524 cb3e574dea2d1052e39280babc910dc8 ""
  "/usr/share/texlive/texmf-dist/fonts/tfm/adobe/symbol/psyr.tfm" 1136768653 1408 5937f58aa508ea2cea4901c07d10f5fe ""
  "/usr/share/texlive/texmf-dist/fonts/tfm/adobe/zapfding/pzdr.tfm" 1136768653 1528 f853c4d1b4e0550255e02831fdc8496f ""
  "/usr/share/texlive/texmf-dist/fonts/tfm/jknappen/ec/ecrm1200.tfm" 1136768653 3584 f80ddd985bd00e29e9a6047ebd9d4781 ""
  "/usr/share/texlive/texmf-dist/fonts/tfm/public/amsfonts/symbols/msam10.tfm" 1246382020 916 f87d7c45f9c908e672703b83b72241a3 ""
  "/usr/share/texlive/texmf-dist/fonts/tfm/public/amsfonts/symbols/msam7.tfm" 1246382020 928 2dc8d444221b7a635bb58038579b861a ""
  "/usr/share/texlive/texmf-dist/fonts/tfm/public/amsfonts/symbols/msbm10.tfm" 1246382020 908 2921f8a10601f252058503cc6570e581 ""
  "/usr/share/texlive/texmf-dist/fonts/tfm/public/amsfonts/symbols/msbm7.tfm" 1246382020 940 228d6584342e91276bf566bcf9716b83 ""
  "/usr/share/texlive/texmf-dist/fonts/tfm/public/cm/cmr12.tfm" 1136768653 1288 655e228510b4c2a1abe905c368440826 ""
  "/usr/share/texlive/texmf-dist/fonts/tfm/public/esint/esint10.tfm" 1569948395 364 55557743e6c24ee44e49bc5e8dbbe3cd ""
  "/usr/share/texlive/texmf-dist/fonts/tfm/public/esvect/vect10.tfm" 1238776476 372 07da2e555f4c8dac959d0bb59cacb4dc ""
  "/usr/share/texlive/texmf-dist/fonts/tfm/public/esvect/vect7.tfm" 1238776476 372 343d7e2023bd46714a16077de230ba32 ""
  "/usr/share/texlive/texmf-dist/fonts/tfm/public/esvect/vect8.tfm" 1238776476 372 4f0047d7e99a201724968cf4743804cf ""
  "/usr/share/texlive/texmf-dist/fonts/tfm/public/esvect/vect9.tfm" 1238776476 372 0f5d5ce81aa16f79f2beefda0db5a26f ""
  "/usr/share/texlive/texmf-dist/fonts/tfm/public/fourier/fourier-alt-bold.tfm" 1136768653 224 4ac72e62f85410d4b37560babc0905f9 ""
  "/usr/share/texlive/texmf-dist/fonts/tfm/public/fourier/fourier-alt-boldita.tfm" 1136768653 220 b65b4eca7714d93056639e8087616598 ""
  "/usr/share/texlive/texmf-dist/fonts/tfm/public/fourier/fourier-alt-ita.tfm" 1136768653 216 e27f2b163ac276d8da5e6537416cdf40 ""
  "/usr/share/texlive/texmf-dist/fonts/tfm/public/fourier/fourier-alt.tfm" 1136768653 220 26d85b63a783b1f1fab5622acbd07990 ""
  "/usr/share/texlive/texmf-dist/fonts/tfm/public/fourier/fourier-bb.tfm" 1575236847 588 30b875a179a99eec0f6f0a2540c942c1 ""
  "/usr/share/texlive/texmf-dist/fonts/tfm/public/fourier/fourier-mcl.tfm" 1136768653 620 19c124db3cfab09e2a270e93c0b94c1c ""
  "/usr/share/texlive/texmf-dist/fonts/tfm/public/fourier/fourier-mex.tfm" 1575236847 1572 233cc1d2fe9da0b3f64c907e5d58b292 ""
  "/usr/share/texlive/texmf-dist/fonts/tfm/public/fourier/fourier-ml.tfm" 1136768653 1120 281c7872a1f3fc686c053051e921a432 ""
  "/usr/share/texlive/texmf-dist/fonts/tfm/public/fourier/fourier-mlit.tfm" 1136768653 1076 2f8bbd0154a18a0fd665f046ebdfecb3 ""
  "/usr/share/texlive/texmf-dist/fonts/tfm/public/fourier/fourier-ms.tfm" 1136768653 1184 c045430d3c50e3ac06be4ea09e23cd04 ""
  "/usr/share/texlive/texmf-dist/fonts/tfm/public/fourier/fourier-orns.tfm" 1575236847 656 f2c671bee8dbbd35dde47e83c6b4cc70 ""
  "/usr/share/texlive/texmf-dist/fonts/tfm/public/fourier/futb8c.tfm" 1575236847 1388 8820b82e61eede3cd77728cf89bb793b ""
  "/usr/share/texlive/texmf-dist/fonts/tfm/public/fourier/futb8r.tfm" 1136768653 1632 db17fd263f07874754701ae1606f47de ""
  "/usr/share/texlive/texmf-dist/fonts/tfm/public/fourier/futb8t.tfm" 1136768653 16496 8cfc6552dd51c5fbd6801fd8a98501ea ""
  "/usr/share/texlive/texmf-dist/fonts/tfm/public/fourier/futbi8r.tfm" 1136768653 1868 9345b7f9f9d63aae323ea7a94f9135d0 ""
  "/usr/share/texlive/texmf-dist/fonts/tfm/public/fourier/futbi8t.tfm" 1136768653 16584 469a85ba02a755ddd81a477e9d83407f ""
  "/usr/share/texlive/texmf-dist/fonts/tfm/public/fourier/futmi.tfm" 1136768653 3908 134bee7e89e5ea037d022133b5d70a90 ""
  "/usr/share/texlive/texmf-dist/fonts/tfm/public/fourier/futmii.tfm" 1136768653 4268 369df562297bf2e301343889d3c1c433 ""
  "/usr/share/texlive/texmf-dist/fonts/tfm/public/fourier/futr8c.tfm" 1575236847 1388 d9096524ed1bcb31494a842de214440c ""
  "/usr/share/texlive/texmf-dist/fonts/tfm/public/fourier/futr8r.tfm" 1136768653 1624 538d715a58a983dc183e18316ca72926 ""
  "/usr/share/texlive/texmf-dist/fonts/tfm/public/fourier/futr8t.tfm" 1136768653 16984 6d4d92d3efaef5cab6a470d5d5548d56 ""
  "/usr/share/texlive/texmf-dist/fonts/tfm/public/fourier/futri8r.tfm" 1136768653 1844 05bfde78a3831349c6fcf7f272c13d65 ""
  "/usr/share/texlive/texmf-dist/fonts/tfm/public/fourier/futri8t.tfm" 1136768653 16416 afc29352777063eec9d207ab744c06f5 ""
  "/usr/share/texlive/texmf-dist/fonts/tfm/public/fourier/futsy.tfm" 1136768653 2072 49145300fcadcc756b7349fc6e6c8913 ""
  "/usr/share/texlive/texmf-dist/fonts/tfm/public/latex-fonts/lasy6.tfm" 1136768653 520 4889cce2180234b97cad636b6039c722 ""
  "/usr/share/texlive/texmf-dist/fonts/tfm/public/rsfs/rsfs10.tfm" 1229303445 688 37338d6ab346c2f1466b29e195316aa4 ""
  "/usr/share/texlive/texmf-dist/fonts/tfm/public/rsfs/rsfs7.tfm" 1229303445 692 1b6510779f0f05e9cbf03e0f6c8361e6 ""
  "/usr/share/texlive/texmf-dist/fonts/tfm/public/stmaryrd/stmary10.tfm" 1302307949 848 f478e0761563bbc369eca609a1741348 ""
  "/usr/share/texlive/texmf-dist/fonts/tfm/public/stmaryrd/stmary7.tfm" 1302307949 848 26631fcb3e4cb6757598b9cda7967b63 ""
  "/usr/share/texlive/texmf-dist/fonts/tfm/public/stmaryrd/stmary8.tfm" 1302307949 848 6125cdd3627e68d3db8013b98e587508 ""
  "/usr/share/texlive/texmf-dist/fonts/tfm/public/stmaryrd/stmary9.tfm" 1302307949 848 594c171945930dfc7cc52fb30457c803 ""
  "/usr/share/texlive/texmf-dist/fonts/type1/adobe/utopia/putb8a.pfb" 1164221255 36737 6946087c3bf3ef810605d9989b3e7a11 ""
  "/usr/share/texlive/texmf-dist/fonts/type1/adobe/utopia/putbi8a.pfb" 1164221255 37993 d2f34a65b241be35208ae648768194f6 ""
  "/usr/share/texlive/texmf-dist/fonts/type1/adobe/utopia/putr8a.pfb" 1164221255 36507 bc28f9f0cdba50a8a348a6e4dc8a5378 ""
  "/usr/share/texlive/texmf-dist/fonts/type1/adobe/utopia/putri8a.pfb" 1164221255 37756 112837e95d30cb64c320437ea63bd4d6 ""
  "/usr/share/texlive/texmf-dist/fonts/type1/public/amsfonts/latxfont/lcircle1.pfb" 1248133631 10594 310261a6407d360eda1ed257d05cd4df ""
  "/usr/share/texlive/texmf-dist/fonts/type1/public/fourier/fourier-mex.pfb" 1575236847 35376 a07df24b37ec077fc9f917f37a80f694 ""
  "/usr/share/texlive/texmf-dist/fonts/type1/public/fourier/fourier-ms.pfb" 1575236847 22238 87e9c1bfb269d3da7d96d9f4df8849d2 ""
  "/usr/share/texlive/texmf-dist/fonts/type1/public/stmaryrd/stmary10.pfb" 1302307949 27430 0e29b053ae98d5f87d872ee72a12d5f5 ""
  "/usr/share/texlive/texmf-dist/fonts/type1/urw/zapfding/uzdr.pfb" 1136849748 45955 6dfcb282cf470ceb18d57d017b7898d6 ""
  "/usr/share/texlive/texmf-dist/fonts/vf/public/fourier/futb8c.vf" 1575236847 3436 48507fd8c5f978cc40abc2ed274d9406 ""
  "/usr/share/texlive/texmf-dist/fonts/vf/public/fourier/futb8t.vf" 1136768653 2168 d2ac693e07cd79dbc2b914caee3e8df0 ""
  "/usr/share/texlive/texmf-dist/fonts/vf/public/fourier/futbi8t.vf" 1136768653 2172 742138c6a7248e3249d40a206c9d66b6 ""
  "/usr/share/texlive/texmf-dist/fonts/vf/public/fourier/futmii.vf" 1136768653 1332 62b87bc157157fd0616b8398929f8399 ""
  "/usr/share/texlive/texmf-dist/fonts/vf/public/fourier/futr8c.vf" 1575236847 3432 6feece74417bef823a52a9450d7c99dc ""
  "/usr/share/texlive/texmf-dist/fonts/vf/public/fourier/futr8t.vf" 1136768653 2168 e13210e675696694c4e23c8405ebd134 ""
  "/usr/share/texlive/texmf-dist/fonts/vf/public/fourier/futri8t.vf" 1136768653 2168 a3de0d7b0ec248b9d25f46a83dfdb4d8 ""
  "/usr/share/texlive/texmf-dist/fonts/vf/public/fourier/futsy.vf" 1136768653 1244 1f4b25246745a5efc1d2ad7087b5a9e9 ""
  "/usr/share/texlive/texmf-dist/tex/context/base/mkii/supp-pdf.mkii" 1461363279 71627 94eb9990bed73c364d7f53f960cc8c5b ""
  "/usr/share/texlive/texmf-dist/tex/generic/atbegshi/atbegshi.sty" 1575674566 24708 5584a51a7101caf7e6bbf1fc27d8f7b1 ""
  "/usr/share/texlive/texmf-dist/tex/generic/babel-french/french.ldf" 1580422756 68260 b72777b7b16768ca73c25c12cc2beb01 ""
  "/usr/share/texlive/texmf-dist/tex/generic/babel/babel.def" 1581719732 87344 ec128793fb5196bbcc1741e5366ddac1 ""
  "/usr/share/texlive/texmf-dist/tex/generic/babel/babel.sty" 1581719732 18844 909add1631725af40d27125357ea816e ""
  "/usr/share/texlive/texmf-dist/tex/generic/babel/switch.def" 1581719732 15529 e761dc130df77f0ce9717a25d1b52a95 ""
  "/usr/share/texlive/texmf-dist/tex/generic/babel/txtbabel.def" 1580769195 5220 42a6518b499d20676051f269c61f4d9a ""
  "/usr/share/texlive/texmf-dist/tex/generic/bigintcalc/bigintcalc.sty" 1576625341 40635 c40361e206be584d448876bba8a64a3b ""
  "/usr/share/texlive/texmf-dist/tex/generic/bitset/bitset.sty" 1576016050 33961 6b5c75130e435b2bfdb9f480a09a39f9 ""
  "/usr/share/texlive/texmf-dist/tex/generic/etexcmds/etexcmds.sty" 1576625273 7734 b98cbb34c81f667027c1e3ebdbfce34b ""
  "/usr/share/texlive/texmf-dist/tex/generic/gettitlestring/gettitlestring.sty" 1576625223 8371 9d55b8bd010bc717624922fb3477d92e ""
  "/usr/share/texlive/texmf-dist/tex/generic/iftex/ifluatex.sty" 1572645307 492 1994775aa15b0d1289725a0b1bbc2d4c ""
  "/usr/share/texlive/texmf-dist/tex/generic/iftex/ifpdf.sty" 1572645307 480 5778104efadad304ced77548ca2184b1 ""
  "/usr/share/texlive/texmf-dist/tex/generic/iftex/iftex.sty" 1573336935 6902 30fdaf7dc5636b8e3afa306210c45cae ""
  "/usr/share/texlive/texmf-dist/tex/generic/iftex/ifvtex.sty" 1572645307 1057 525c2192b5febbd8c1f662c9468335bb ""
  "/usr/share/texlive/texmf-dist/tex/generic/infwarerr/infwarerr.sty" 1575499628 8356 7bbb2c2373aa810be568c29e333da8ed ""
  "/usr/share/texlive/texmf-dist/tex/generic/intcalc/intcalc.sty" 1576625065 31769 002a487f55041f8e805cfbf6385ffd97 ""
  "/usr/share/texlive/texmf-dist/tex/generic/kvdefinekeys/kvdefinekeys.sty" 1576878844 5412 d5a2436094cd7be85769db90f29250a6 ""
  "/usr/share/texlive/texmf-dist/tex/generic/kvsetkeys/kvsetkeys.sty" 1576624944 13807 952b0226d4efca026f0e19dd266dcc22 ""
  "/usr/share/texlive/texmf-dist/tex/generic/ltxcmds/ltxcmds.sty" 1576624883 18552 1e1cc7b75da0dfaacce7cdcb27d306bf ""
  "/usr/share/texlive/texmf-dist/tex/generic/multido/multido.tex" 1274110955 9097 0ff4dff7eb59381cc861308a1c448fc4 ""
  "/usr/share/texlive/texmf-dist/tex/generic/pdfescape/pdfescape.sty" 1576015897 19007 15924f7228aca6c6d184b115f4baa231 ""
  "/usr/share/texlive/texmf-dist/tex/generic/pgf/basiclayer/pgfcore.code.tex" 1557692582 992 fb3cda354707a54fda62787a411c7c22 ""
  "/usr/share/texlive/texmf-dist/tex/generic/pgf/basiclayer/pgfcorearrows.code.tex" 1546728038 43820 bc6cf5aa959817914ace33f5c6232161 ""
  "/usr/share/texlive/texmf-dist/tex/generic/pgf/basiclayer/pgfcoreexternal.code.tex" 1557692582 19324 c9a64402f22bd8d81821141a357af653 ""
  "/usr/share/texlive/texmf-dist/tex/generic/pgf/basiclayer/pgfcoregraphicstate.code.tex" 1546728038 6038 d639d02574be9a72f3c602c2a3510e02 ""
  "/usr/share/texlive/texmf-dist/tex/generic/pgf/basiclayer/pgfcoreimage.code.tex" 1546728038 6948 284bbe3c9a7ca0a826c1c03895e69b9f ""
  "/usr/share/texlive/texmf-dist/tex/generic/pgf/basiclayer/pgfcorelayers.code.tex" 1546728038 4883 a6f3eb1f71d8c4affaf43a169828b043 ""
  "/usr/share/texlive/texmf-dist/tex/generic/pgf/basiclayer/pgfcoreobjects.code.tex" 1546728038 2544 3b1b198fd49f01e328adc9162a07b213 ""
  "/usr/share/texlive/texmf-dist/tex/generic/pgf/basiclayer/pgfcorepathconstruct.code.tex" 1576793519 44189 1fd6229dad4c898883516c032f2ca5d2 ""
  "/usr/share/texlive/texmf-dist/tex/generic/pgf/basiclayer/pgfcorepathprocessing.code.tex" 1546728038 17311 3092579be20ef0f229c42ad3f09da85c ""
  "/usr/share/texlive/texmf-dist/tex/generic/pgf/basiclayer/pgfcorepathusage.code.tex" 1546728038 21302 d6c4b340248adbe650ebf6ca76bdccca ""
  "/usr/share/texlive/texmf-dist/tex/generic/pgf/basiclayer/pgfcorepatterns.code.tex" 1562964315 9690 7585efa5a591822837f837bc5bc35621 ""
  "/usr/share/texlive/texmf-dist/tex/generic/pgf/basiclayer/pgfcorepoints.code.tex" 1576793519 33335 942ccafe284041918d36e54696b98aa7 ""
  "/usr/share/texlive/texmf-dist/tex/generic/pgf/basiclayer/pgfcorequick.code.tex" 1546728038 2965 502761b60f43ab2de5ecb2f4625163ae ""
  "/usr/share/texlive/texmf-dist/tex/generic/pgf/basiclayer/pgfcorerdf.code.tex" 1546728038 5196 f8c5c775d4d6e2cb050392127cabda72 ""
  "/usr/share/texlive/texmf-dist/tex/generic/pgf/basiclayer/pgfcorescopes.code.tex" 1576793519 20726 ed6ec1d6f0f35e7a93de4e79af83dbce ""
  "/usr/share/texlive/texmf-dist/tex/generic/pgf/basiclayer/pgfcoreshade.code.tex" 1557692582 35249 144a6b9c4df4644618bb3a0a40472608 ""
  "/usr/share/texlive/texmf-dist/tex/generic/pgf/basiclayer/pgfcoretransformations.code.tex" 1546728038 21989 266e83c51fe41eb8b8d5e6896dc71cc1 ""
  "/usr/share/texlive/texmf-dist/tex/generic/pgf/basiclayer/pgfcoretransparency.code.tex" 1546728038 8842 5cc856e132fac404805c6da091779283 ""
  "/usr/share/texlive/texmf-dist/tex/generic/pgf/frontendlayer/tikz/libraries/tikzlibraryarrows.code.tex" 1546728038 319 8fc6edce901e074ba09de320a8fc686b ""
  "/usr/share/texlive/texmf-dist/tex/generic/pgf/frontendlayer/tikz/libraries/tikzlibrarydecorations.code.tex" 1546728038 5493 6342997a7484f1ea9feacd1b25ead9ea ""
  "/usr/share/texlive/texmf-dist/tex/generic/pgf/frontendlayer/tikz/libraries/tikzlibrarydecorations.pathmorphing.code.tex" 1546728038 321 61aafaff3134e44ce6305fdd6927cdc5 ""
  "/usr/share/texlive/texmf-dist/tex/generic/pgf/frontendlayer/tikz/libraries/tikzlibraryfadings.code.tex" 1546728038 1179 bb12be2a349da04542eb1820d6ef2546 ""
  "/usr/share/texlive/texmf-dist/tex/generic/pgf/frontendlayer/tikz/libraries/tikzlibraryfpu.code.tex" 1546728038 283 089230eb299a474ce2824678bcd1743a ""
  "/usr/share/texlive/texmf-dist/tex/generic/pgf/frontendlayer/tikz/libraries/tikzlibrarymath.code.tex" 1557692582 25517 40478218403d8186f231a45c46d0954b ""
  "/usr/share/texlive/texmf-dist/tex/generic/pgf/frontendlayer/tikz/libraries/tikzlibrarypatterns.code.tex" 1546728038 770 618a89f4ac550a393f10702d3046162f ""
  "/usr/share/texlive/texmf-dist/tex/generic/pgf/frontendlayer/tikz/libraries/tikzlibrarypetri.code.tex" 1546728038 4375 8ac359fd2bce7824f51dcd51f4014f1b ""
  "/usr/share/texlive/texmf-dist/tex/generic/pgf/frontendlayer/tikz/libraries/tikzlibraryshadows.code.tex" 1546728038 2889 cc480f49ed20c2fcdee5258286919df6 ""
  "/usr/share/texlive/texmf-dist/tex/generic/pgf/frontendlayer/tikz/libraries/tikzlibraryshapes.geometric.code.tex" 1546728038 339 153f95b6d1982135aac9ba139d8a4870 ""
  "/usr/share/texlive/texmf-dist/tex/generic/pgf/frontendlayer/tikz/libraries/tikzlibrarytopaths.code.tex" 1576793519 11544 2a5d66a3270abf4ef673e8a0b7734a90 ""
  "/usr/share/texlive/texmf-dist/tex/generic/pgf/frontendlayer/tikz/tikz.code.tex" 1576967981 187592 7922ceab1864698dec4c84978d5b182f ""
  "/usr/share/texlive/texmf-dist/tex/generic/pgf/libraries/decorations/pgflibrarydecorations.pathmorphing.code.tex" 1557692582 8843 8328b4068b5b11eaa173e0957cd0eac5 ""
  "/usr/share/texlive/texmf-dist/tex/generic/pgf/libraries/pgflibraryarrows.code.tex" 1546728038 31874 d843d507175f2bdfa3abf01f0349dac8 ""
  "/usr/share/texlive/texmf-dist/tex/generic/pgf/libraries/pgflibraryfadings.code.tex" 1546728038 2563 97c355d55617296f2e7ef7030bada827 ""
  "/usr/share/texlive/texmf-dist/tex/generic/pgf/libraries/pgflibraryfpu.code.tex" 1576793519 83910 20dfc3ec7fa0b1c2b3bb20376d4a1a54 ""
  "/usr/share/texlive/texmf-dist/tex/generic/pgf/libraries/pgflibrarypatterns.code.tex" 1546728038 7936 1d559f55663b722daf7ce26cef4c3906 ""
  "/usr/share/texlive/texmf-dist/tex/generic/pgf/libraries/pgflibraryplothandlers.code.tex" 1546728038 32995 a4d54c043ae5274ceaaddeb36ad43a6f ""
  "/usr/share/texlive/texmf-dist/tex/generic/pgf/libraries/shapes/pgflibraryshapes.geometric.code.tex" 1546728038 160992 a39094cdc3a2bf5a131b9fd00f9002aa ""
  "/usr/share/texlive/texmf-dist/tex/generic/pgf/math/pgfint.code.tex" 1557692582 3063 8c415c68a0f3394e45cfeca0b65f6ee6 ""
  "/usr/share/texlive/texmf-dist/tex/generic/pgf/math/pgfmath.code.tex" 1557692582 521 c70cf6ad609de83a27ee7929eb356332 ""
  "/usr/share/texlive/texmf-dist/tex/generic/pgf/math/pgfmathcalc.code.tex" 1557692582 13391 933cab19c6d27039dbfc487330d1005a ""
  "/usr/share/texlive/texmf-dist/tex/generic/pgf/math/pgfmathfloat.code.tex" 1557692582 104938 15f2d8bdabd6bf9ca70f62cd8e3d4940 ""
  "/usr/share/texlive/texmf-dist/tex/generic/pgf/math/pgfmathfunctions.base.code.tex" 1557692582 10157 218d58ab074e5bd0d027de45ec64cc00 ""
  "/usr/share/texlive/texmf-dist/tex/generic/pgf/math/pgfmathfunctions.basic.code.tex" 1576793519 28176 568b081ec39645f2db1a29fbd0c635e2 ""
  "/usr/share/texlive/texmf-dist/tex/generic/pgf/math/pgfmathfunctions.code.tex" 1562964315 9054 388d21239a1b6df2cc8beaae31c976b0 ""
  "/usr/share/texlive/texmf-dist/tex/generic/pgf/math/pgfmathfunctions.comparison.code.tex" 1557692582 3865 cddf7ddc80f018587c55afdcc79fc333 ""
  "/usr/share/texlive/texmf-dist/tex/generic/pgf/math/pgfmathfunctions.integerarithmetics.code.tex" 1557692582 3177 27d85c44fbfe09ff3b2cf2879e3ea434 ""
  "/usr/share/texlive/texmf-dist/tex/generic/pgf/math/pgfmathfunctions.misc.code.tex" 1557692582 10925 df50b8a6e5660a585e3a2bf55726dcc8 ""
  "/usr/share/texlive/texmf-dist/tex/generic/pgf/math/pgfmathfunctions.random.code.tex" 1562964315 7787 1750fc3f164703caf31fc8ea9218c67e ""
  "/usr/share/texlive/texmf-dist/tex/generic/pgf/math/pgfmathfunctions.round.code.tex" 1557692582 3379 cbd0948a550bd7a495a160ca6beee9ed ""
  "/usr/share/texlive/texmf-dist/tex/generic/pgf/math/pgfmathfunctions.trigonometric.code.tex" 1557692582 92405 bba89470858d7b0788a9c09331c39653 ""
  "/usr/share/texlive/texmf-dist/tex/generic/pgf/math/pgfmathparser.code.tex" 1576793519 36526 453db1f8626a56b5ebb0fad496d6a39f ""
  "/usr/share/texlive/texmf-dist/tex/generic/pgf/math/pgfmathutil.code.tex" 1576793519 8471 b18959397c76e1e582402ab9f592ed9f ""
  "/usr/share/texlive/texmf-dist/tex/generic/pgf/modules/pgfmoduledecorations.code.tex" 1557692582 71722 1aa2adb2b5cb7aafc25e92426626ab63 ""
  "/usr/share/texlive/texmf-dist/tex/generic/pgf/modules/pgfmodulematrix.code.tex" 1576793519 21201 46a4dded6619f990ac7347f99fbaac9f ""
  "/usr/share/texlive/texmf-dist/tex/generic/pgf/modules/pgfmoduleplot.code.tex" 1557692582 16121 9e240115374a8d489f2f786115df83a9 ""
  "/usr/share/texlive/texmf-dist/tex/generic/pgf/modules/pgfmoduleshapes.code.tex" 1576793519 43259 3e05ba63539916af2eaca603c2eda780 ""
  "/usr/share/texlive/texmf-dist/tex/generic/pgf/pgf.revision.tex" 1578520427 465 1f401ab1e7fc6cb7ede39e96c66531fd ""
  "/usr/share/texlive/texmf-dist/tex/generic/pgf/systemlayer/pgf.cfg" 1557692582 926 70ff613fabeb70f5d1673dc0c93987bd ""
  "/usr/share/texlive/texmf-dist/tex/generic/pgf/systemlayer/pgfsys-common-pdf.def" 1557692582 5546 3586827e6032c95512b2a6682d2979a3 ""
  "/usr/share/texlive/texmf-dist/tex/generic/pgf/systemlayer/pgfsys-pdftex.def" 1562964315 12603 c02869ea216d842c29d52fae8738264e ""
  "/usr/share/texlive/texmf-dist/tex/generic/pgf/systemlayer/pgfsys.code.tex" 1557692582 60269 e86bc0081af83a4ad47e4500ee09a2e4 ""
  "/usr/share/texlive/texmf-dist/tex/generic/pgf/systemlayer/pgfsysprotocol.code.tex" 1557692582 1896 82c274ff520f9e450ccea4e3ef4edc12 ""
  "/usr/share/texlive/texmf-dist/tex/generic/pgf/systemlayer/pgfsyssoftpath.code.tex" 1557692582 7778 a25a32a10ca820357491d4c7b3ac02ea ""
  "/usr/share/texlive/texmf-dist/tex/generic/pgf/utilities/pgffor.code.tex" 1562964315 23777 cb6c8f02f87d86d621f5cb92c44f4998 ""
  "/usr/share/texlive/texmf-dist/tex/generic/pgf/utilities/pgfkeys.code.tex" 1576793519 36815 f7f1772c398f07af2cb741992963045c ""
  "/usr/share/texlive/texmf-dist/tex/generic/pgf/utilities/pgfkeysfiltered.code.tex" 1562964315 37439 bd44d50aef702b03193f731207931834 ""
  "/usr/share/texlive/texmf-dist/tex/generic/pgf/utilities/pgfrcs.code.tex" 1557692582 4494 7e5ace0ccf59408f2cf63219a5d36927 ""
  "/usr/share/texlive/texmf-dist/tex/generic/pgf/utilities/pgfutil-common-lists.tex" 1557692582 7250 03b2b9fb5fa38e7ca5cc3c45860fb210 ""
  "/usr/share/texlive/texmf-dist/tex/generic/pgf/utilities/pgfutil-common.tex" 1576793519 28309 488ccc6c701bbdd1bf671f708757aa5c ""
  "/usr/share/texlive/texmf-dist/tex/generic/pgf/utilities/pgfutil-latex.def" 1562964315 6286 1bd76fc45da9929ab2a64f51cba3ab6f ""
  "/usr/share/texlive/texmf-dist/tex/generic/pst-3d/pst-3d.tex" 1267469873 8560 99cb5f929ec677d5d92115dcb5f5d1da ""
  "/usr/share/texlive/texmf-dist/tex/generic/pst-arrow/pst-arrow.tex" 1472865914 19277 bd197efafe21e6fe6e4e5f2321df2db7 ""
  "/usr/share/texlive/texmf-dist/tex/generic/pst-eps/pst-eps.tex" 1164924011 6626 c66d0fab03b75f0f38118f0ae24fc97a ""
  "/usr/share/texlive/texmf-dist/tex/generic/pst-eucl/pst-eucl.tex" 1580337519 457350 dab112bab29ac06ea80b9d24d447a948 ""
  "/usr/share/texlive/texmf-dist/tex/generic/pst-fill/pst-fill.tex" 1195212464 12466 03d27acc58c39b82f5abd549d7fd8e7e ""
  "/usr/share/texlive/texmf-dist/tex/generic/pst-math/pst-math.tex" 1544741409 758 5399054982e46dc29976615bb12394af ""
  "/usr/share/texlive/texmf-dist/tex/generic/pst-node/pst-node.tex" 1551651200 70497 74deb1f56423cb97b6d481fb3799438d ""
  "/usr/share/texlive/texmf-dist/tex/generic/pst-plot/pst-plot.tex" 1563311596 105551 d5187d151544f840ae3091d420dd080f ""
  "/usr/share/texlive/texmf-dist/tex/generic/pst-text/pst-text.tex" 1546207911 6745 027807ad93822e66515e4f7cf4518327 ""
  "/usr/share/texlive/texmf-dist/tex/generic/pst-tools/pst-tools.tex" 1512339550 5463 bae7dceaa2a0a1cb893ce9681133cdd6 ""
  "/usr/share/texlive/texmf-dist/tex/generic/pst-tree/pst-tree.tex" 1487636748 34086 8c023802ad34765aee58475310340530 ""
  "/usr/share/texlive/texmf-dist/tex/generic/pstricks-add/pstricks-add.tex" 1581546112 86775 b75bbb6128455a482e2141110d3de94b ""
  "/usr/share/texlive/texmf-dist/tex/generic/pstricks/pst-fp.tex" 1507158243 23494 021a2534924628b436e298b27663e4a2 ""
  "/usr/share/texlive/texmf-dist/tex/generic/pstricks/pstricks.con" 1507158243 14950 b87088c382dada3ad53ea3dfbd2917d7 ""
  "/usr/share/texlive/texmf-dist/tex/generic/pstricks/pstricks.tex" 1557692234 139163 5edbcfc0d54c4352ab34bd06f12ed9cc ""
  "/usr/share/texlive/texmf-dist/tex/generic/ulem/ulem.sty" 1578692523 15682 94f55b803e160cf7fb6e4d77d07cfe1d ""
  "/usr/share/texlive/texmf-dist/tex/generic/uniquecounter/uniquecounter.sty" 1576624663 7008 f92eaa0a3872ed622bbf538217cd2ab7 ""
  "/usr/share/texlive/texmf-dist/tex/generic/variations/variations.sty" 1180717093 249 1cd7dc0833ac9ce9362e1bb9816cc539 ""
  "/usr/share/texlive/texmf-dist/tex/generic/variations/variations.tex" 1180717093 2093 bb6793bf9aa04c85aa9cf034cd966184 ""
  "/usr/share/texlive/texmf-dist/tex/generic/xkeyval/pst-xkey.tex" 1403829539 2369 cef6c7a731680765c6f9543fc756db98 ""
  "/usr/share/texlive/texmf-dist/tex/generic/xkeyval/xkeyval.tex" 1417732693 19231 26434a5656c684f5ffb1f26f98006baa ""
  "/usr/share/texlive/texmf-dist/tex/generic/xkeyval/xkvutils.tex" 1403829539 7677 6f5ce7c1124cad7ec57d05b2562bd8fe ""
  "/usr/share/texlive/texmf-dist/tex/generic/xstring/xstring.sty" 1544223003 123 a302f2c651a95033260db60e51527ae8 ""
  "/usr/share/texlive/texmf-dist/tex/generic/xstring/xstring.tex" 1549403660 47762 87512aefe2c24c8c3ff58ba167aba4d9 ""
  "/usr/share/texlive/texmf-dist/tex/latex/algorithmicx/algorithmicx.sty" 1160617237 26750 ce139c05a983e19ddca355b43e29c395 ""
  "/usr/share/texlive/texmf-dist/tex/latex/algorithmicx/algpseudocode.sty" 1160617237 3457 d9077efe6b74c5a094199256af8d7d9a ""
  "/usr/share/texlive/texmf-dist/tex/latex/algorithms/algorithm.sty" 1251330371 3249 15763257e50278eef5db1952ccde229c ""
  "/usr/share/texlive/texmf-dist/tex/latex/alterqcm/alterqcm.sty" 1561410379 22846 109add6938b44bf7a5b9d7e1e9e1d16f ""
  "/usr/share/texlive/texmf-dist/tex/latex/amsfonts/amsfonts.sty" 1359763108 5949 3f3fd50a8cc94c3d4cbf4fc66cd3df1c ""
  "/usr/share/texlive/texmf-dist/tex/latex/amsfonts/amssymb.sty" 1359763108 13829 94730e64147574077f8ecfea9bb69af4 ""
  "/usr/share/texlive/texmf-dist/tex/latex/amsfonts/umsa.fd" 1359763108 961 6518c6525a34feb5e8250ffa91731cff ""
  "/usr/share/texlive/texmf-dist/tex/latex/amsfonts/umsb.fd" 1359763108 961 d02606146ba5601b5645f987c92e6193 ""
  "/usr/share/texlive/texmf-dist/tex/latex/amsmath/amsbsy.sty" 1523134290 2211 ca7ce284ab93c8eecdc6029dc5ccbd73 ""
  "/usr/share/texlive/texmf-dist/tex/latex/amsmath/amsgen.sty" 1523134290 4161 7f6eb9092061a11f87d08ed13515b48d ""
  "/usr/share/texlive/texmf-dist/tex/latex/amsmath/amsmath.sty" 1580683321 85660 baee036978c7a91f4e2bba43f05e5945 ""
  "/usr/share/texlive/texmf-dist/tex/latex/amsmath/amsopn.sty" 1523134290 4116 32e6abd27229755a83a8b7f18e583890 ""
  "/usr/share/texlive/texmf-dist/tex/latex/amsmath/amstext.sty" 1523134290 2432 8ff93b1137020e8f21930562a874ae66 ""
  "/usr/share/texlive/texmf-dist/tex/latex/atveryend/atveryend.sty" 1576191570 19336 ce7ae9438967282886b3b036cfad1e4d ""
  "/usr/share/texlive/texmf-dist/tex/latex/auxhook/auxhook.sty" 1576625391 3935 57aa3c3e203a5c2effb4d2bd2efbc323 ""
  "/usr/share/texlive/texmf-dist/tex/latex/base/alltt.sty" 1580683321 3140 3b501b609b11ff7320ce1a19dbac0e3b ""
  "/usr/share/texlive/texmf-dist/tex/latex/base/article.cls" 1580683321 20023 e427dd9e17e239bf926ef3aab67fe35e ""
  "/usr/share/texlive/texmf-dist/tex/latex/base/fontenc.sty" 1581632200 4947 0c2888dd88121ae675fc6e82213623ba ""
  "/usr/share/texlive/texmf-dist/tex/latex/base/ifthen.sty" 1580683321 5159 892429808d9e0e2b3548aaefd9a06ed0 ""
  "/usr/share/texlive/texmf-dist/tex/latex/base/inputenc.sty" 1580683321 5050 8933a39ad74377accd18991c5eb90c58 ""
  "/usr/share/texlive/texmf-dist/tex/latex/base/size12.clo" 1580683321 8447 5c4b8ee712f8e349df2722115bc8c513 ""
  "/usr/share/texlive/texmf-dist/tex/latex/base/textcomp.sty" 1581112666 2821 2c0928feafd5527387e29a1af774d030 ""
  "/usr/share/texlive/texmf-dist/tex/latex/bbm-macros/bbm.sty" 1191314257 1644 1e0d54b051369c3f457872824cac219f ""
  "/usr/share/texlive/texmf-dist/tex/latex/bclogo/bc-attention.mps" 1312240336 3357 3e13530b6f5ada6b76e87116c58757b9 ""
  "/usr/share/texlive/texmf-dist/tex/latex/bclogo/bc-book.mps" 1312240336 4539 2072d5ac3e214d0af64967efd66e698c ""
  "/usr/share/texlive/texmf-dist/tex/latex/bclogo/bc-crayon.mps" 1312240336 10508 32fe774902fc4cc37e74ed9822c93293 ""
  "/usr/share/texlive/texmf-dist/tex/latex/bclogo/bc-outil.mps" 1312240336 1556 7f76ddb541225db3c36c64030c3bd603 ""
  "/usr/share/texlive/texmf-dist/tex/latex/bclogo/bc-rosevents.mps" 1312240336 5207 72699bb6d64fece04016f5cf3cb7c359 ""
  "/usr/share/texlive/texmf-dist/tex/latex/bclogo/bclogo.sty" 1452639548 22518 1f6a4ecab39ccbb8d89292d57c25d0b8 ""
  "/usr/share/texlive/texmf-dist/tex/latex/cancel/cancel.sty" 1388445839 7592 dd751af313a16a0308545d5bfd7aaaa2 ""
  "/usr/share/texlive/texmf-dist/tex/latex/caption/caption.sty" 1578175482 57350 70b0c251b0022f1db12ad7dd4c1aa547 ""
  "/usr/share/texlive/texmf-dist/tex/latex/caption/caption3.sty" 1578175482 62012 5e9d40ecd926a6f500919e4c7e1480de ""
  "/usr/share/texlive/texmf-dist/tex/latex/caption/ltcaption.sty" 1578175482 7020 a2061dd3662af1fc726ee63bf983f939 ""
  "/usr/share/texlive/texmf-dist/tex/latex/carlisle/scalefnt.sty" 1137109962 1360 df2086bf924b14b72d6121fe9502fcdb ""
  "/usr/share/texlive/texmf-dist/tex/latex/colortbl/colortbl.sty" 1579991017 10793 d0af3aa11e27ae35ba4685b17597b122 ""
  "/usr/share/texlive/texmf-dist/tex/latex/doublestroke/dsfont.sty" 1137110062 230 7bc61880b468bfd38aedc173be7c3486 ""
  "/usr/share/texlive/texmf-dist/tex/latex/eepic/eepic.sty" 1137110077 17662 c85d6c04287ee4592a15f6d02221d58f ""
  "/usr/share/texlive/texmf-dist/tex/latex/eepic/epic.sty" 1247274248 25873 0e813d2f6e266780f0cedef5eb5e2525 ""
  "/usr/share/texlive/texmf-dist/tex/latex/enumitem/enumitem.sty" 1561238569 51697 f8f08183cd2080d9d18a41432d651dfb ""
  "/usr/share/texlive/texmf-dist/tex/latex/epstopdf-pkg/epstopdf-base.sty" 1579991033 13886 d1306dcf79a944f6988e688c1785f9ce ""
  "/usr/share/texlive/texmf-dist/tex/latex/esint/esint.sty" 1567035683 2930 afa98ed936439dae4d7a74e105144a0f ""
  "/usr/share/texlive/texmf-dist/tex/latex/esint/uesint.fd" 1567035683 795 7639bdc0e31ae0fddb2806b1ed14c450 ""
  "/usr/share/texlive/texmf-dist/tex/latex/esvect/esvect.sty" 1383954187 2228 f0e3a0c630ba45124a894f16cbe0ce55 ""
  "/usr/share/texlive/texmf-dist/tex/latex/esvect/uesvect.fd" 1137110106 871 1db67a6cb048038ebd1c0c0f606b8537 ""
  "/usr/share/texlive/texmf-dist/tex/latex/etex-pkg/etex.sty" 1470088041 19013 c49da619eb7bd8093706fabc7ba9ceae ""
  "/usr/share/texlive/texmf-dist/tex/latex/etoolbox/etoolbox.sty" 1569190624 45259 743c52a37a6e5ed83cfe0e128b2da10d ""
  "/usr/share/texlive/texmf-dist/tex/latex/eurosym/eurosym.sty" 1137110118 3028 8faeef64adee9b964b5e7f5e45921024 ""
  "/usr/share/texlive/texmf-dist/tex/latex/fancybox/fancybox.sty" 1274111957 27261 5ae6156674330dc345adb79b6e5d8966 ""
  "/usr/share/texlive/texmf-dist/tex/latex/fancyhdr/fancyhdr.sty" 1548974385 11128 a53805799bebfed6358fc1658a18e41f ""
  "/usr/share/texlive/texmf-dist/tex/latex/fancyvrb/fancyvrb.sty" 1578950756 43158 eb6545ca94a288335910480ca6755b55 ""
  "/usr/share/texlive/texmf-dist/tex/latex/float/float.sty" 1137110151 6749 16d2656a1984957e674b149555f1ea1d ""
  "/usr/share/texlive/texmf-dist/tex/latex/fourier/fmlfutm.fd" 1137110168 640 e9faa3c895b5b0d2cc1c1f7ae5b1e92b ""
  "/usr/share/texlive/texmf-dist/tex/latex/fourier/fmlfutmi.fd" 1137110168 656 ae28e6211f6ec967acab0e84e89d4157 ""
  "/usr/share/texlive/texmf-dist/tex/latex/fourier/fmsfutm.fd" 1137110168 344 d6ad49184dbd12acf51a3d68a16431aa ""
  "/usr/share/texlive/texmf-dist/tex/latex/fourier/fmxfutm.fd" 1137110168 234 391aead033d3fe052ccf3274bb7741ee ""
  "/usr/share/texlive/texmf-dist/tex/latex/fourier/fourier-orns.sty" 1579038649 4863 4274f984b684126da9d8bcb3c6f68466 ""
  "/usr/share/texlive/texmf-dist/tex/latex/fourier/fourier.sty" 1579038649 15090 acfe651198193b0490771bf73e5cd755 ""
  "/usr/share/texlive/texmf-dist/tex/latex/fourier/t1futs.fd" 1137110168 1110 49fc682812e5bf3bf06c16254f321544 ""
  "/usr/share/texlive/texmf-dist/tex/latex/fourier/ts1futs.fd" 1575236847 787 818797b59cd4054e6d1cee71ba7fad05 ""
  "/usr/share/texlive/texmf-dist/tex/latex/framed/framed.sty" 1338588508 22449 7ec15c16d0d66790f28e90343c5434a3 ""
  "/usr/share/texlive/texmf-dist/tex/latex/geometry/geometry.sty" 1578002852 41601 9cf6c5257b1bc7af01a58859749dd37a ""
  "/usr/share/texlive/texmf-dist/tex/latex/graphics-cfg/color.cfg" 1459978653 1213 620bba36b25224fa9b7e1ccb4ecb76fd ""
  "/usr/share/texlive/texmf-dist/tex/latex/graphics-cfg/graphics.cfg" 1465944070 1224 978390e9c2234eab29404bc21b268d1e ""
  "/usr/share/texlive/texmf-dist/tex/latex/graphics-def/pdftex.def" 1515537368 17334 520b9b85ad8a2a48eda3f643e27a5179 ""
  "/usr/share/texlive/texmf-dist/tex/latex/graphics/graphics.sty" 1580683321 16932 04729abe63b66ec59ea56edcd722b058 ""
  "/usr/share/texlive/texmf-dist/tex/latex/graphics/graphicx.sty" 1580683321 9067 1b996612394a52e1efe89c8bfe8a5892 ""
  "/usr/share/texlive/texmf-dist/tex/latex/graphics/keyval.sty" 1580683321 2590 e3b24ff953e5b58d924f163d25380312 ""
  "/usr/share/texlive/texmf-dist/tex/latex/graphics/lscape.sty" 1580683321 1753 f80abc75c0e3a4915097779c2649cc98 ""
  "/usr/share/texlive/texmf-dist/tex/latex/graphics/rotating.sty" 1580683321 6982 df2e03ed1b101065d688af501de0405d ""
  "/usr/share/texlive/texmf-dist/tex/latex/graphics/trig.sty" 1580683321 3976 d7fa7d81d2870d509d25b17d0245e735 ""
  "/usr/share/texlive/texmf-dist/tex/latex/hycolor/hycolor.sty" 1580250785 17914 4c28a13fc3d975e6e81c9bea1d697276 ""
  "/usr/share/texlive/texmf-dist/tex/latex/hyperref/hpdftex.def" 1579642962 50630 3d9728faf8630190cf601ce2cbe470d9 ""
  "/usr/share/texlive/texmf-dist/tex/latex/hyperref/hyperref.sty" 1579642962 238752 60dd338d71b6a4ab2192131f73dc908b ""
  "/usr/share/texlive/texmf-dist/tex/latex/hyperref/nameref.sty" 1579642962 13244 0070bcab7b5a88187847128d22faf4d8 ""
  "/usr/share/texlive/texmf-dist/tex/latex/hyperref/pd1enc.def" 1579642962 14134 32b36577d311ddb6522413c7581ee968 ""
  "/usr/share/texlive/texmf-dist/tex/latex/jknapltx/mathrsfs.sty" 1137110241 300 12fa6f636b617656f2810ee82cb05015 ""
  "/usr/share/texlive/texmf-dist/tex/latex/jknapltx/ursfs.fd" 1137110241 548 cc4e3557704bfed27c7002773fad6c90 ""
  "/usr/share/texlive/texmf-dist/tex/latex/kvoptions/kvoptions.sty" 1575152344 22520 c4c2dab203104295e1e618be7e5c0f5b ""
  "/usr/share/texlive/texmf-dist/tex/latex/l3backend/l3backend-pdfmode.def" 1580854751 25404 9d60f463a00d154207ec0048dee27cf0 ""
  "/usr/share/texlive/texmf-dist/tex/latex/l3kernel/expl3.sty" 1581719662 4381 04628f3002bdd1d9c43ef984fd60ae18 ""
  "/usr/share/texlive/texmf-dist/tex/latex/l3packages/l3keys2e/l3keys2e.sty" 1581719662 4603 36e20d23ad4e5fdd8990f0c8ded4c131 ""
  "/usr/share/texlive/texmf-dist/tex/latex/l3packages/xparse/xparse.sty" 1581719662 81717 e93576ac4b24ce6e121ebd6ec6cf2893 ""
  "/usr/share/texlive/texmf-dist/tex/latex/lastpage/lastpage.sty" 1427756658 9922 eb7d00b99f0f5207f71a5cdcbafceac1 ""
  "/usr/share/texlive/texmf-dist/tex/latex/latexconfig/epstopdf-sys.cfg" 1279039959 678 4792914a8f45be57bb98413425e4c7af ""
  "/usr/share/texlive/texmf-dist/tex/latex/lcg/lcg.sty" 1376952631 7557 a6a7208cc9c7a9367eb18b81162cfd36 ""
  "/usr/share/texlive/texmf-dist/tex/latex/letltxmacro/letltxmacro.sty" 1575499565 5766 13a9e8766c47f30327caf893ece86ac8 ""
  "/usr/share/texlive/texmf-dist/tex/latex/listings/listings.cfg" 1568236792 1830 bbaba8afaf42cc048ec4d4ff73467521 ""
  "/usr/share/texlive/texmf-dist/tex/latex/listings/listings.sty" 1568236792 80511 830f3f1d3ab7448dd84233e9c2f6462c ""
  "/usr/share/texlive/texmf-dist/tex/latex/listings/lstlang1.sty" 1568236792 204271 6a0ce6b8dafb6c4a13b9036ab1717c77 ""
  "/usr/share/texlive/texmf-dist/tex/latex/listings/lstmisc.sty" 1568236792 77022 32914f01b528131c47be2a1040d3856d ""
  "/usr/share/texlive/texmf-dist/tex/latex/mathtools/mathtools.sty" 1579298046 55081 be7d8405cd93834f75bdf98c6521d2a0 ""
  "/usr/share/texlive/texmf-dist/tex/latex/mathtools/mhsetup.sty" 1496786006 5317 cf75154a8a7e6436f05a5be497f0b05e ""
  "/usr/share/texlive/texmf-dist/tex/latex/mdframed/md-frame-1.mdf" 1372805434 24632 760c4c81e779e6958bac43417deb524f ""
  "/usr/share/texlive/texmf-dist/tex/latex/mdframed/mdframed.sty" 1372805434 53487 3e997243f47cb3ba8b4c7b8df9c82989 ""
  "/usr/share/texlive/texmf-dist/tex/latex/moreverb/moreverb.sty" 1303261271 5863 07095464939df437145876547e980c96 ""
  "/usr/share/texlive/texmf-dist/tex/latex/ms/everyshi.sty" 1177890616 3878 6aa7c08ff2621006e0603349e40a30a8 ""
  "/usr/share/texlive/texmf-dist/tex/latex/multido/multido.sty" 1274110955 814 d89f40f374e3a6b4c98edfaac22a9685 ""
  "/usr/share/texlive/texmf-dist/tex/latex/multirow/multirow.sty" 1559339157 5486 a1d954b09782ba0acd8a8abfd98e1028 ""
  "/usr/share/texlive/texmf-dist/tex/latex/needspace/needspace.sty" 1364856750 852 0e34dbb72efc69fa07602405ad95585e ""
  "/usr/share/texlive/texmf-dist/tex/latex/ntheorem/ntheorem.sty" 1346969955 43120 799f06af91d8fb275749981ca21a5146 ""
  "/usr/share/texlive/texmf-dist/tex/latex/numprint/numprint.sty" 1345676921 43541 af48d216c5f1c2effc55675ad75988d7 ""
  "/usr/share/texlive/texmf-dist/tex/latex/pdftexcmds/pdftexcmds.sty" 1574631863 19963 36fd8e818f9f0f32e2db8413d4970122 ""
  "/usr/share/texlive/texmf-dist/tex/latex/pgf/basiclayer/pgf.sty" 1546728038 1090 d20f587ea9464d1841bd0d13d3ff9856 ""
  "/usr/share/texlive/texmf-dist/tex/latex/pgf/basiclayer/pgfcore.sty" 1288312291 410 5bf12ea7330e5f12c445332a4fe9a263 ""
  "/usr/share/texlive/texmf-dist/tex/latex/pgf/compatibility/pgfcomp-version-0-65.sty" 1546728038 21013 e98e1aaaf40d31632787c2bd25d24b57 ""
  "/usr/share/texlive/texmf-dist/tex/latex/pgf/compatibility/pgfcomp-version-1-18.sty" 1546728038 989 2cf3da8e8ec55131c49389428d565e37 ""
  "/usr/share/texlive/texmf-dist/tex/latex/pgf/frontendlayer/tikz.sty" 1203877327 339 592cf35cba3d400082b8a9a5d0199d70 ""
  "/usr/share/texlive/texmf-dist/tex/latex/pgf/math/pgfmath.sty" 1393459310 306 0796eafca5e159e6ec2167a6d22d81b1 ""
  "/usr/share/texlive/texmf-dist/tex/latex/pgf/systemlayer/pgfsys.sty" 1393459310 443 0b2e781830192df35c0fd357cf13e26e ""
  "/usr/share/texlive/texmf-dist/tex/latex/pgf/utilities/pgffor.sty" 1393459310 348 8927fde343487e003b01a4c2ca34073b ""
  "/usr/share/texlive/texmf-dist/tex/latex/pgf/utilities/pgfkeys.sty" 1203727794 274 4cad6e665cc93ac2ac979039a94fa1e1 ""
  "/usr/share/texlive/texmf-dist/tex/latex/pgf/utilities/pgfrcs.sty" 1203877327 325 2bcd023400636339210573e2b3ee298b ""
  "/usr/share/texlive/texmf-dist/tex/latex/placeins/placeins.sty" 1137110565 4087 636308456f60d2b31cbf97867db5708d ""
  "/usr/share/texlive/texmf-dist/tex/latex/psnfss/pifont.sty" 1156702453 2284 330328193b4aeb08dd45b0dd3e5ae732 ""
  "/usr/share/texlive/texmf-dist/tex/latex/psnfss/upsy.fd" 1137110629 148 2da0acd77cba348f34823f44cabf0058 ""
  "/usr/share/texlive/texmf-dist/tex/latex/psnfss/upzd.fd" 1137110629 148 b2a94082cb802f90d3daf6dd0c7188a0 ""
  "/usr/share/texlive/texmf-dist/tex/latex/pst-3d/pst-3d.sty" 1266106437 443 d1873dd9a3c8f02cc644ef4cc27d6a9f ""
  "/usr/share/texlive/texmf-dist/tex/latex/pst-calculate/pst-calculate.sty" 1548452370 1528 3dc4f4cc437a72374a5000335eca9b1a ""
  "/usr/share/texlive/texmf-dist/tex/latex/pst-eps/pst-eps.sty" 1164924011 213 4d7fcb98766a3c81bbdd1c1c7c2a8bc8 ""
  "/usr/share/texlive/texmf-dist/tex/latex/pst-eucl/pst-eucl.sty" 1580337519 538 605c096f29341a9064e99921f9c7c521 ""
  "/usr/share/texlive/texmf-dist/tex/latex/pst-fill/pst-fill.sty" 1195212464 1532 f39cc88d3829ec7edd2ca78e8cc92910 ""
  "/usr/share/texlive/texmf-dist/tex/latex/pst-math/pst-math.sty" 1544997122 2703 199bbdb10f14bd9afa28f2f231c5b475 ""
  "/usr/share/texlive/texmf-dist/tex/latex/pst-node/pst-node.sty" 1514673787 1481 7864a8ba3c1edc7f3f5a3ae565a951fd ""
  "/usr/share/texlive/texmf-dist/tex/latex/pst-plot/pst-plot.sty" 1510693542 1128 f4dad605edda1e26695946a79769f2f8 ""
  "/usr/share/texlive/texmf-dist/tex/latex/pst-text/pst-text.sty" 1546207911 420 325b2d79e6cc77e5ab0ce3abd8795fce ""
  "/usr/share/texlive/texmf-dist/tex/latex/pst-tools/pst-tools.sty" 1512339550 432 438032ad5ef12d08a54bb69e5bf97621 ""
  "/usr/share/texlive/texmf-dist/tex/latex/pst-tree/pst-tree.sty" 1299112732 272 43917aa8ada114bded7ee69ac67e45c7 ""
  "/usr/share/texlive/texmf-dist/tex/latex/pstricks-add/pstricks-add.sty" 1544395029 1601 8ecb91bf225187aa780030cff714a0b6 ""
  "/usr/share/texlive/texmf-dist/tex/latex/pstricks/pstricks.sty" 1557692234 8180 8816e897a21f53527fc20f94d01ecff9 ""
  "/usr/share/texlive/texmf-dist/tex/latex/refcount/refcount.sty" 1576624809 9878 9e94e8fa600d95f9c7731bb21dfb67a4 ""
  "/usr/share/texlive/texmf-dist/tex/latex/rerunfilecheck/rerunfilecheck.sty" 1575674187 9715 b051d5b493d9fe5f4bc251462d039e5f ""
  "/usr/share/texlive/texmf-dist/tex/latex/setspace/setspace.sty" 1324344192 22913 a27d7908fc6f0385466454a966a316eb ""
  "/usr/share/texlive/texmf-dist/tex/latex/siunitx/siunitx-abbreviations.cfg" 1579124948 4745 793d4d5a808c37a7085f620706b56fe1 ""
  "/usr/share/texlive/texmf-dist/tex/latex/siunitx/siunitx.sty" 1579124948 277221 4016d94a4b6827ec1ad2f76abfb692bc ""
  "/usr/share/texlive/texmf-dist/tex/latex/stmaryrd/Ustmry.fd" 1137110872 1766 216b0f832c406513647608b5bb9bb8ff ""
  "/usr/share/texlive/texmf-dist/tex/latex/stmaryrd/stmaryrd.sty" 1302307949 11080 aa7f81da60ce104f0dbb8b827dd14383 ""
  "/usr/share/texlive/texmf-dist/tex/latex/subfig/subfig.sty" 1158586182 21369 9ef165ca6df8815c92e693146a376c92 ""
  "/usr/share/texlive/texmf-dist/tex/latex/tkz-tab/tkz-tab.sty" 1548026410 48465 45e4978788060494318b61d102365098 ""
  "/usr/share/texlive/texmf-dist/tex/latex/tocvsec2/tocvsec2.sty" 1394484963 6398 030cbcf10bea168b5cca832f6a13071c ""
  "/usr/share/texlive/texmf-dist/tex/latex/tools/afterpage.sty" 1580683321 4086 32b9926a18aee6b101ee149b86305c26 ""
  "/usr/share/texlive/texmf-dist/tex/latex/tools/array.sty" 1580683321 12560 ce3f59ceae9d9a27bfe037d6bf1d903c ""
  "/usr/share/texlive/texmf-dist/tex/latex/tools/calc.sty" 1580683321 10216 5efd55f2010055e7b7875afd6a75be82 ""
  "/usr/share/texlive/texmf-dist/tex/latex/tools/enumerate.sty" 1580683321 3469 19b6cb25f21abe53fb90b9fe27615441 ""
  "/usr/share/texlive/texmf-dist/tex/latex/tools/longtable.sty" 1580683321 12133 b1e3e65b69714dbfcc5e6c0b19d66b50 ""
  "/usr/share/texlive/texmf-dist/tex/latex/tools/multicol.sty" 1580683321 31532 04852e45d7c17cb384689d2f83b628d3 ""
  "/usr/share/texlive/texmf-dist/tex/latex/tools/shellesc.sty" 1580683321 4120 d1680a5ff60d0aea9c327e07c030f4e9 ""
  "/usr/share/texlive/texmf-dist/tex/latex/tools/tabularx.sty" 1580683321 7148 4ba718200276533b3a293c311a9349e0 ""
  "/usr/share/texlive/texmf-dist/tex/latex/tools/varioref.sty" 1580683321 36692 fa125469c111046ecdf3717a9ba7ff20 ""
  "/usr/share/texlive/texmf-dist/tex/latex/tools/verbatim.sty" 1580683321 7308 a7fb09b68a4a07a482e876fbe2959b04 ""
  "/usr/share/texlive/texmf-dist/tex/latex/tools/xspace.sty" 1580683321 4546 3e6071704acf4f66392376b7b66ae02c ""
  "/usr/share/texlive/texmf-dist/tex/latex/translator/translator-basic-dictionary-English.dict" 1512078926 3435 0a4d096dde3f8fe682c2aedd33b8137d ""
  "/usr/share/texlive/texmf-dist/tex/latex/translator/translator-basic-dictionary-French.dict" 1512078926 3560 be528eda7aca9d3d944c402c17335b5f ""
  "/usr/share/texlive/texmf-dist/tex/latex/translator/translator.sty" 1559339174 8691 e154b4b39c7cd1cfa9301a391c44afdd ""
  "/usr/share/texlive/texmf-dist/tex/latex/url/url.sty" 1388531844 12796 8edb7d69a20b857904dd0ea757c14ec9 ""
  "/usr/share/texlive/texmf-dist/tex/latex/wrapfig/wrapfig.sty" 1137111090 26220 3701aebf80ccdef248c0c20dd062fea9 ""
  "/usr/share/texlive/texmf-dist/tex/latex/xcolor/xcolor.sty" 1463002160 55589 34128738f682d033422ca125f82e5d62 ""
  "/usr/share/texlive/texmf-dist/tex/latex/xkeyval/pst-xkey.sty" 1403829539 1694 5b153824355229520616b428e1fa7882 ""
  "/usr/share/texlive/texmf-dist/tex/latex/xkeyval/xkeyval.sty" 1417732693 4962 9c1069474ff71dbc47d5006555e352d3 ""
  "/usr/share/texlive/texmf-dist/tex/latex/zref/zref-abspage.sty" 1575152173 2249 beff01700bd6f8d058ee79210d29b86b ""
  "/usr/share/texlive/texmf-dist/tex/latex/zref/zref-base.sty" 1575152173 20606 9687ab75e08c0f04f97928ff5e46e770 ""
  "/usr/share/texlive/texmf-dist/web2c/texmf.cnf" 1581979058 38841 ce3692aa899bb693b90b87eaa5d4d84e ""
  "/usr/share/texmf/fonts/enc/dvips/lm/lm-ec.enc" 1254938640 2375 baa924870cfb487815765f9094cf3728 ""
  "/usr/share/texmf/fonts/tfm/public/lm/ec-lmtl10.tfm" 1254938640 1372 9aa3c61e5abab20602b1493c07ad9966 ""
  "/usr/share/texmf/fonts/tfm/public/lm/rm-lmss10.tfm" 1254938640 10976 59d4d2acacc56ba9abc92645023932ec ""
  "/usr/share/texmf/fonts/tfm/public/lm/rm-lmss12.tfm" 1254938640 11024 7a83ae8920360cd8bd5d0289069119dc ""
  "/usr/share/texmf/fonts/tfm/public/lm/rm-lmss8.tfm" 1254938640 10976 d5243dcaf5ba5ee7825c8438c6b7a7ea ""
  "/usr/share/texmf/fonts/tfm/public/lm/rm-lmss9.tfm" 1254938640 11004 a6c4e1a908f2608664e4229dbcec5884 ""
  "/usr/share/texmf/fonts/tfm/public/lm/rm-lmtt10.tfm" 1254938640 1340 adaa94f9add991a099a6fc98bbb5f02c ""
  "/usr/share/texmf/fonts/tfm/public/lm/rm-lmtt12.tfm" 1254938640 1336 3f1d3798f35e35601b79a222d795ee97 ""
  "/usr/share/texmf/fonts/tfm/public/lm/rm-lmtt8.tfm" 1254938640 1348 e9ce72e654d76f23fb9e1b8842e0576a ""
  "/usr/share/texmf/fonts/tfm/public/lm/rm-lmtt9.tfm" 1254938640 1340 95bafc1340b1c519d1b4b4bcc33f5afc ""
  "/usr/share/texmf/fonts/type1/public/lm/lmtl10.pfb" 1254938640 106061 ddbd7371b8087a450886acb5321c80b8 ""
  "/usr/share/texmf/tex/latex/lm/lmodern.sty" 1256929440 1606 c17281c7cff2bbd7ff0173e1433487ec ""
  "/usr/share/texmf/tex/latex/lm/ot1lmss.fd" 1256929440 1655 27274ffd69942383838a2081fd5be3d1 ""
  "/usr/share/texmf/tex/latex/lm/ot1lmtt.fd" 1256929440 2712 a8a977c98484ccc2dbc768e5509e3790 ""
  "/usr/share/texmf/web2c/texmf.cnf" 1581979058 38841 ce3692aa899bb693b90b87eaa5d4d84e ""
  "/var/lib/texmf/fonts/map/pdftex/updmap/pdftex.map" 1594384540 4770781 1ed1abab22da9c3e2cc82e4db562318b ""
  "/var/lib/texmf/web2c/pdftex/pdflatex.fmt" 1594384591 8255617 c535410d7f886d9803adc13dfc6038e8 ""
  "Chapitre6-ReprésentationEntiers-2021V1.aux" 1637166604 8 a94a2480d3289e625eea47cd1b285758 "pdflatex"
  "Chapitre6-ReprésentationEntiers-2021V1.out" 0 -1 0 "pdflatex"
  "Chapitre6-ReprésentationEntiers-2021V1.tex" 1637163677 82631 d882397b6e94ce7a91fb17d22d748745 ""
  "images/octet.png" 0 -1 0 ""
  "images/relatif1.png" 0 -1 0 ""
  "images/relatif2.png" 0 -1 0 ""
  "images/relatif3.png" 0 -1 0 ""
  (generated)
  "Chapitre6-ReprésentationEntiers-2021V1.log"
  "Chapitre6-ReprésentationEntiers-2021V1.out"
  "Chapitre6-ReprésentationEntiers-2021V1.pdf"
  "Chapitre6-ReprésentationEntiers-2021V1.aux"
  "Chapitre6-ReprésentationEntiers-2021V1.thm"
